…
    ## Warning: There were 43 warnings in `mutate()`.
    ## The first warning was:
    ## ℹ In argument: `tidy_res = map(fit, ~tidy(.x, exponentiate = TRUE, conf.int =
    ##   TRUE))`.
    ## ℹ In group 1: `city_state = "Albuquerque, NM"`.
    ## Caused by warning:
    ## ! glm.fit: fitted probabilities numerically 0 or 1 occurred
    ## ℹ Run `dplyr::last_dplyr_warnings()` to see the 42 remaining warnings.

``` r
or_city
```

    ## # A tibble: 47 × 5
    ##    city_state      or_male_vs_female CI_low CI_high   p_value
    ##    <chr>                       <dbl>  <dbl>   <dbl>     <dbl>
    ##  1 Albuquerque, NM             1.77   0.825   3.76  1.39 e- 1
    ##  2 Atlanta, GA                 1.00   0.680   1.46  1.000e+ 0
    ##  3 Baltimore, MD               0.426  0.324   0.558 6.26 e-10
    ##  4 Baton Rouge, LA             0.381  0.204   0.684 1.65 e- 3
    ##  5 Birmingham, AL              0.870  0.571   1.31  5.11 e- 1
    ##  6 Boston, MA                  0.674  0.353   1.28  2.26 e- 1
    ##  7 Buffalo, NY                 0.521  0.288   0.936 2.90 e- 2
    ##  8 Charlotte, NC               0.884  0.551   1.39  6.00 e- 1
    ##  9 Chicago, IL                 0.410  0.336   0.501 1.86 e-18
    ## 10 Cincinnati, OH              0.400  0.231   0.667 6.49 e- 4
    ## # ℹ 37 more rows
…
## Problem 2

### data import

``` r
library(p8105.datasets)
data("weather_df")

janitor::clean_names(weather_df)
```

    ## # A tibble: 2,190 × 6
    ##    name           id          date        prcp  tmax  tmin
    ##    <chr>          <chr>       <date>     <dbl> <dbl> <dbl>
    ##  1 CentralPark_NY USW00094728 2021-01-01   157   4.4   0.6
    ##  2 CentralPark_NY USW00094728 2021-01-02    13  10.6   2.2
    ##  3 CentralPark_NY USW00094728 2021-01-03    56   3.3   1.1
    ##  4 CentralPark_NY USW00094728 2021-01-04     5   6.1   1.7
    ##  5 CentralPark_NY USW00094728 2021-01-05     0   5.6   2.2
    ##  6 CentralPark_NY USW00094728 2021-01-06     0   5     1.1
    ##  7 CentralPark_NY USW00094728 2021-01-07     0   5    -1  
    ##  8 CentralPark_NY USW00094728 2021-01-08     0   2.8  -2.7
    ##  9 CentralPark_NY USW00094728 2021-01-09     0   2.8  -4.3
    ## 10 CentralPark_NY USW00094728 2021-01-10     0   5    -1.6
    ## # ℹ 2,180 more rows
…
